{
	"orderPurpose": "New Fibre Service", 
	"orderStatus": "In Progress", 
	"orderDate": "20-04-2015", 
	"customerContact": {
		"firstName": "Jonathan",
		"lastName": "Bradley",
		"emailID": "jonathan.bradley@hotmail.com", 
		"mobilePhone": "0271112223", 
		"workPhone": "094531723"
	},

	"serviceAddress": {
		"elid": "A1004421117",
		"addressLine1": "191 DE HAVILLAND DRIVE", 
		"addressLine2": "Bell Block", 
		"addressLine3": "NEW PLYMOUTH 4373", 
		"addressType": "Urban",
		"streetNrFirst": "191",
		"streetName": "DE HAVILLAND", 
		"streetType": "DRIVE",
		"locality": "Bell Block",
		"postcode": "4373",
		"townOrCity": "NEW PLYMOUTH", 
		"verified": true,
		"geoCoOrd": {
			"latitude": -39.033746, 
			"longitude": 174.171834, "nztmX": 1701424.42, 
			"nztmY": 5678825.3
		}, 
		"altRef": [
			{
				"type": "tui",
				"id": "1000806937"
			}, 
			{
				"id": "1000806938" }
			]
		},

		"orderCompletionDate": "01-05-2015", 
		"currentStage": "Complete", 
		
		"orderHistory": [
			{
               "stage":"Order Created",
               "date":"20-04-2015"
            },
            {
            	"stage":"Generate Quote",
               "date":"21-04-2015"
            }

		],
		"courierTrackingNumber": "XXX-12345", 
		"status": {
			"statusCode": 0,
			"statusDescription": "Success" 
			
		}
}